{
    "name": "Player",
    "maps": [
        {
            "name": "Movimiento",
            "id": "f64b94a4-893e-4842-9222-9c8baa9529cc",
            "actions": [
                {
                    "name": "Izquierda",
                    "type": "Button",
                    "id": "8ec92940-f235-451d-8494-456e4b370d54",
                    "expectedControlType": "Button",
                    "processors": "",
                    "interactions": ""
                },
                {
                    "name": "Derecha",
                    "type": "Button",
                    "id": "260714cb-0bc6-4032-8257-e49bd6786591",
                    "expectedControlType": "Button",
                    "processors": "",
                    "interactions": ""
                },
                {
                    "name": "Salto",
                    "type": "Button",
                    "id": "20966244-a2f9-4814-a8e6-0982e94838c8",
                    "expectedControlType": "Button",
                    "processors": "",
                    "interactions": ""
                }
            ],
            "bindings": [
                {
                    "name": "",
                    "id": "fad3722b-bbb1-42aa-8302-5f47d38eda86",
                    "path": "<Gamepad>/leftStick/left",
                    "interactions": "Press",
                    "processors": "",
                    "groups": "",
                    "action": "Izquierda",
                    "isComposite": false,
                    "isPartOfComposite": false
                },
                {
                    "name": "",
                    "id": "388459a2-8281-4e5e-ad07-1433cf96c256",
                    "path": "<Keyboard>/a",
                    "interactions": "Press",
                    "processors": "",
                    "groups": "",
                    "action": "Izquierda",
                    "isComposite": false,
                    "isPartOfComposite": false
                },
                {
                    "name": "",
                    "id": "5cd4d6f9-3615-4e83-b863-9b278f064e41",
                    "path": "<Keyboard>/d",
                    "interactions": "Press",
                    "processors": "",
                    "groups": "",
                    "action": "Derecha",
                    "isComposite": false,
                    "isPartOfComposite": false
                },
                {
                    "name": "",
                    "id": "22c01d48-408c-4655-909a-5798b3e2a318",
                    "path": "<Gamepad>/dpad/right",
                    "interactions": "Press",
                    "processors": "",
                    "groups": "",
                    "action": "Derecha",
                    "isComposite": false,
                    "isPartOfComposite": false
                },
                {
                    "name": "",
                    "id": "4b7c914f-00cc-407f-863f-bb6b976f0953",
                    "path": "<Keyboard>/space",
                    "interactions": "Tap",
                    "processors": "",
                    "groups": "",
                    "action": "Salto",
                    "isComposite": false,
                    "isPartOfComposite": false
                },
                {
                    "name": "",
                    "id": "298c67ac-08ad-40f2-914a-f5c44b6d7238",
                    "path": "<Gamepad>/buttonSouth",
                    "interactions": "Tap",
                    "processors": "",
                    "groups": "",
                    "action": "Salto",
                    "isComposite": false,
                    "isPartOfComposite": false
                }
            ]
        }
    ],
    "controlSchemes": []
}